﻿BDFPF / DFPFNL NATIONAAL KAMPIOENSCHAP
BK BENCH EQ
1                                        - 90 KG                Mazet             Kim         F   BEL   34   SR   84,20    -65     67,5    -75             44,75
1                                        + 90 KG                Verweider         Justine     F   BEL   21   JR   96,00    55      60      65              39,73
1                                        67,5 KG                Van den Broecke   Daniel      M   BEL   22   JR   66,50    85      90      -95             66,21
1                                        67,5 KG                Goossens          Chesney     M   BEL   26   SR   65,20    165     170     -180            127,36
2                                        67,5 KG                Dehondt           Nick        M   BEL   27   SR   63,70    85      92,5    97,5            74,68
1                                        75 KG                  Vermeersch        Guillaume   M   BEL   16   T2   72,10    80      90      -100            61,73
1                                        75 KG                  Vanhaverbeke      Kenny       M   BEL   35   SR   72,60    117,5   122,5   127,5           86,96
2                                        75 KG                  Van den Abbeele   Tim         M   BEL   31   SR   68,50    105     110     -115            78,80
1                                        82,5 KG                Hamidian          Human       M   BEL   17   T2   80,70    105     110     115             72,34
1                                        82,5 KG                Abdullah          Christian   M   BEL   20   JR   80,80    120     -130    130             81,69
1                                        82,5 KG                Sudarminto        Indra       M   BEL   28   SR   76,50    180     195     -200            127,59
1                                        82,5 KG                Kerwyn            Herve       M   BEL   75   M8   81,30    105     110     116             71,96
1                                        90 KG                  Verbeke           Beny        M   BEL   53   M3   89,40    120     130     135             79,34
1                                        100 KG                 Dequidt           Benn        M   BEL   24   SR   95,80    130     137,5   142,5           80,57
1                                        110 KG                 Tancré            Kevin       M   BEL   24   SR   106,80   145     152,5   -157,5          82,47
1                                        110 KG                 Vermote           Gianni      M   BEL   46   M2   108,80   140     150     160             86,08
1                                        125 KG                 Degruyter         Bjorn       M   BEL   28   SR   116,00   130     137,5   -142,5          72,94
1                                        75 KG                  Conrad            Finn        M   GER   20   JR   73,70    80      90      -95             60,63
                                         NK BENCH EQ
1                                        - 58,5 KG   Zwerts                       Rowana      F   NED   20   JR   57,30    75      77,5    80       85     70,30
1                                        82,5 KG   van Bijnen                     Marcel      M   NED   48   M2   80,70    95      102,5   107,5           67,62
1                                        90 KG    van Bijnen                      Gilbert     M   NED   46   M2   86,40    120     127,5   135      140    81,05
1                                        100 KG    Ruyter                         Dylan       M   NED   31   SR   93,00    135     -140    142,5           81,85
1                                        100 KG    Abend                          Uwe         M   NED   58   M4   93,10    115     120     125             71,75
1                                        125 KG    Harms                          Orson       M   NED   44   M1   122,30   190     -200    -200            99,67
1                                        125 KG    Vroom                          Victor      M   NED   57   M4   118,30   95      107,5   -110            56,81
                                         Gast lifters
1                                        100 KG    Pütz                           David       M   GER   42   M1   92,80    155,5   -160    -160            89,14
1                                        125 KG    Stoebke                        Christian   M   GER   42   M1   118,10   140     150     -160            79,31
1                                        145 KG    Tetzlaff                       Martin      M   GER   48   M2   128,20   205     215     220,5    -223   113,78
Nationaal Rec
Wereld Rec
Dopingtest
11 Mei 2019

BDFPF / DFPFNL NATIONAAL KAMPIOENSCHAP
BK DEADL EQ
1                                        - 90 KG    Mazet           Kim         F        BEL     34       SR      84,20    135     142,5    150     99,45
1                                        + 90 KG   Verweider        Justine     F        BEL     21       JR      96,00    137,5   147,5    -155    90,15
1                                        67,5 KG   Goossens         Chesney     M        BEL     26       SR      65,20    160     172,5    -175    129,24
1                                        75 KG    Vermeersch        Guillaume   M        BEL     16       T2      72,10    165     175      180     123,46
1                                        75 KG    Vanhaverbeke      Kenny       M        BEL     35       SR      72,60    190     197,5    207,5   141,52
2                                        75 KG    Van den Abbeele   Tim         M        BEL     31       SR      68,50    175     190      -200    136,12
1                                        82,5 KG   Hamidian         Human       M        BEL     17       T2      80,70    -210    220      -230    138,38
1                                        82,5 KG   Abdullah         Christian   M        BEL     20       JR      80,80    220     235      -245    147,67
2                                        82,5 KG   Declercq         Bram        M        BEL     23       JR      82,30    220     235      -250    145,77
1                                        82,5 KG   Sudarminto       Indra       M        BEL     28       SR      76,50    275     -285     -285    179,93
1                                        90 KG    Verbeke           Beny        M        BEL     53       M3      89,40    260     275      285     167,49
1                                        100 KG    Dequidt          Benn        M        BEL     24       SR      95,80    210     230      240     135,70
1                                        110 KG    Tancré           Kevin       M        BEL     24       SR      106,80   237,5   252,5    260     140,61
                                         NK DEADL EQ
1                                        100 KG    Abend            Uwe         M        NED     58       M4      93,10    155     165      -170    94,71
                                         Gast lifters
1                                        75 KG    Conrad            Finn        M  GER   20 JR   73,70    122,5   142,5    162,5   109,48
1                                        125 KG    Stoebke          Christian   M  GER   42 M1   118,10   122,5   142,5    150     79,31
1                                        145 KG    Tetzlaff         Martin      M  GER   48 M2   128,20   200     230      240     124,13
Nationaal Rec
Wereld Rec
11 Mei 2019
