Name,WeightClassKg,Division,Best3SquatKg,Best3BenchKg,Best3DeadliftKg,TotalKg,Sex,Event,Equipment,Place
Joey Rein,52,M-T1,117.5,60,132.5,310,M,SBD,Single-ply,1
Caleb Messimer,52,M-T1,115,62.5,127.5,305,M,SBD,Single-ply,2
Frank Ramsey,52,M-T1,117.5,65,117.5,300,M,SBD,Single-ply,3
Ryan Bachorz,52,M-T2,150,92.5,167.5,410,M,SBD,Single-ply,1
Nick Norwood,52,M-T2,140,100,132.5,372.5,M,SBD,Single-ply,2
Clay Rosue,52,M-T2,137.5,65,160,362.5,M,SBD,Single-ply,3
Ross Maestas,52,M-T2,120,65,122.5,307.5,M,SBD,Single-ply,4
David Summers,52,M-T3,160,105,170,435,M,SBD,Single-ply,1
Jeremiah Welch,52,M-Jr,140,80,147.5,367.5,M,SBD,Single-ply,1
Daniel Miller,56,M-T1,117.5,67.5,155,340,M,SBD,Single-ply,1
Keith McClyng,56,M-T1,130,70,140,340,M,SBD,Single-ply,2
Lalo Pruneda,56,M-T1,122.5,65,147.5,335,M,SBD,Single-ply,3
Tyler Baines,56,M-T2,155,107.5,172.5,435,M,SBD,Single-ply,1
Kyle Dahl,56,M-T2,142.5,95,175,412.5,M,SBD,Single-ply,2
Matthew Knight #4,56,M-T2,142.5,97.5,142.5,382.5,M,SBD,Single-ply,3
Chris Christensen,56,M-T2,130,87.5,155,372.5,M,SBD,Single-ply,4
Nolan Colmore,56,M-T2,140,80,140,360,M,SBD,Single-ply,5
Micheal Hamsen,56,M-T2,120,52.5,140,312.5,M,SBD,Single-ply,6
Micheal Riemann,56,M-T2,182.5,,,,M,SBD,Single-ply,DQ
Joe Giorno,56,M-T3,135,75,155,365,M,SBD,Single-ply,1
Jeremy Scuggs,56,M-Jr,202.5,115,227.5,545,M,SBD,Single-ply,1
Mike Hafenbrack,56,M-Jr,202.5,115,205,522.5,M,SBD,Single-ply,2
Nathan Hendrickson,60,M-T1,142.5,97.5,177.5,417.5,M,SBD,Single-ply,1
Vince Scavuzzo,60,M-T1,132.5,75,142.5,350,M,SBD,Single-ply,2
Nelson Boutte,60,M-T2,197.5,100,200,497.5,M,SBD,Single-ply,1
Andrew Deal,60,M-T2,170,97.5,182.5,450,M,SBD,Single-ply,2
Kevin Farmer,60,M-T2,160,97.5,160,417.5,M,SBD,Single-ply,3
James Sheridan,60,M-T3,135,87.5,190,412.5,M,SBD,Single-ply,1
Josh Rein,60,M-T3,140,82.5,160,382.5,M,SBD,Single-ply,2
Michael Kuhns,60,M-T3,227.5,162.5,170,560,M,SBD,Single-ply,1
Aaron Phillips #2,60,M-Jr,205,122.5,207.5,535,M,SBD,Single-ply,2
Travis Olinde,60,M-Jr,145,120,150,415,M,SBD,Single-ply,3
Travis Belen,67.5,M-T1,155,110,170,435,M,SBD,Single-ply,1
Lionel Bayiha,67.5,M-T2,195,137.5,235,567.5,M,SBD,Single-ply,1
Tommy Redmon,67.5,M-T2,170,112.5,197.5,480,M,SBD,Single-ply,2
Kurt Markwell,67.5,M-T2,165,115,177.5,457.5,M,SBD,Single-ply,3
Brantley Thornton,67.5,M-T2,,,,,M,SBD,Single-ply,DQ
Jonathan Post,67.5,M-T2,,,,,M,SBD,Single-ply,DQ
Bryan Hynson,67.5,M-T3,227.5,142.5,227.5,597.5,M,SBD,Single-ply,1
Uziel Medina,67.5,M-T3,230,135,227.5,592.5,M,SBD,Single-ply,2
Steve Mikulecky,67.5,M-T3,192.5,125,242.5,560,M,SBD,Single-ply,3
Michael Jenks,67.5,M-T3,190,125,220,535,M,SBD,Single-ply,4
Jon Norwood,67.5,M-T3,200,145,177.5,522.5,M,SBD,Single-ply,5
Russell Johnston,67.5,M-T3,190,117.5,207.5,515,M,SBD,Single-ply,6
Caleb Williams #1,67.5,M-Jr,272.5,187.5,247.5,707.5,M,SBD,Single-ply,1
Manuel Ruiz,67.5,M-Jr,230,125,255,610,M,SBD,Single-ply,2
Joshua Schwartz #2,67.5,M-Jr,200,112.5,217.5,530,M,SBD,Single-ply,3
Michael Petrarca,67.5,M-Jr,227.5,,,,M,SBD,Single-ply,DQ
Ric Tronzo,75,M-T1,175,80,180,435,M,SBD,Single-ply,1
Sean Devlyn,75,M-T1,122.5,102.5,147.5,372.5,M,SBD,Single-ply,2
Matthew Winchester,75,M-T1,170,92.5,,,M,SBD,Single-ply,DQ
Alex Singleton,75,M-T2,205,132.5,182.5,520,M,SBD,Single-ply,1
Steven Lanning,75,M-T2,177.5,110,182.5,470,M,SBD,Single-ply,2
Eric May,75,M-T2,175,105,177.5,457.5,M,SBD,Single-ply,3
Fy Pruneda,75,M-T2,170,85,200,455,M,SBD,Single-ply,4
Joe Raehl,75,M-T2,,,,,M,SBD,Single-ply,DQ
Glenn France,75,M-T3,242.5,130,235,607.5,M,SBD,Single-ply,1
Kury Jones,75,M-T3,232.5,130,235.5,598,M,SBD,Single-ply,2
Charles Armstrong,75,M-T3,232.5,120,232.5,585,M,SBD,Single-ply,3
Ryan Hart,75,M-T3,230,135,230,595,M,SBD,Single-ply,4
Nathan Dawson,75,M-T3,182.5,145,180,507.5,M,SBD,Single-ply,5
Derek Horton,75,M-T3,165,130,175,470,M,SBD,Single-ply,6
Daniel LaPierre,75,M-T3,147.5,87.5,177.5,412.5,M,SBD,Single-ply,7
Matt Hastie,75,M-T3,,,,,M,SBD,Single-ply,DQ
David Hammers,75,M-Jr,262.5,195,257.5,715,M,SBD,Single-ply,1
Josh Ruhr,75,M-Jr,267.5,150,277.5,695,M,SBD,Single-ply,2
Nic Gutierrez,75,M-Jr,255,162.5,227.5,645,M,SBD,Single-ply,3
Luke Hanifen,75,M-Jr,210,200,220,630,M,SBD,Single-ply,4
David Villafrance,75,M-Jr,212.5,,,,M,SBD,Single-ply,DQ
Aaron Knotts,82.5,M-T1,157.5,95,177.5,430,M,SBD,Single-ply,1
Justin Tuinstra,82.5,M-T2,215,155,222.5,592.5,M,SBD,Single-ply,1
Mike Tullis,82.5,M-T2,192.5,125,242.5,560,M,SBD,Single-ply,2
Drew Eckman,82.5,M-T2,197.5,105,192.5,495,M,SBD,Single-ply,3
Joe Polakovic,82.5,M-T2,195,87.5,197.5,480,M,SBD,Single-ply,4
Colton Fuller,82.5,M-T3,212.5,127.5,232.5,572.5,M,SBD,Single-ply,1
Shane Oakley,82.5,M-T3,227.5,110,232.5,570,M,SBD,Single-ply,2
James Moreno,82.5,M-T3,175,105,230,510,M,SBD,Single-ply,3
Charles Weatherstone,82.5,M-T3,227.5,,,,M,SBD,Single-ply,DQ
Dustin Whitehead,82.5,M-Jr,287.5,187.5,252.5,727.5,M,SBD,Single-ply,1
Jeremy Weber,82.5,M-Jr,265,150,247.5,662.5,M,SBD,Single-ply,2
Scott Riedl,82.5,M-Jr,240,130,255,625,M,SBD,Single-ply,3
Ben Farral,82.5,M-Jr,235,137.5,237.5,610,M,SBD,Single-ply,4
Pete Nees,82.5,M-Jr,220,142.5,205,567.5,M,SBD,Single-ply,5
Samuel Lewis,90,M-T1,200,102.5,182.5,485,M,SBD,Single-ply,1
Joshua Zuercher,90,M-T1,165,112.5,165,442.5,M,SBD,Single-ply,2
Jeremy Augrbach,90,M-T2,245,203,262.5,710,M,SBD,Single-ply,1
Shane Brady,90,M-T2,262.5,177.5,237.5,677.5,M,SBD,Single-ply,2
Clay Wads,90,M-T2,230,155,250,635,M,SBD,Single-ply,3
Chase Favre,90,M-T2,235,145,247.5,627.5,M,SBD,Single-ply,4
Eric Tomolillo,90,M-T2,220,115,182.5,517.5,M,SBD,Single-ply,5
Matt Meyer,90,M-T2,180,130,182.5,492.5,M,SBD,Single-ply,6
Cory Saltzman,90,M-T3,277.5,147.5,292.5,717.5,M,SBD,Single-ply,1
Andy Odenwald,90,M-T3,227.5,167.5,227.5,622.5,M,SBD,Single-ply,2
Matthew Sessoms,90,M-T3,,,,,M,SBD,Single-ply,DQ
Mathew Campbell,90,M-Jr,302.5,185,285,772.5,M,SBD,Single-ply,1
Ben Hangy,90,M-Jr,275,177.5,282.5,735,M,SBD,Single-ply,2
Anthony Lyons,90,M-Jr,255,167.5,285,707.5,M,SBD,Single-ply,3
Tom O'Dowd,90,M-Jr,275,170,252.5,697.5,M,SBD,Single-ply,4
Blake Dedas,90,M-Jr,245,167.5,270,682.5,M,SBD,Single-ply,5
Cory Melson,90,M-Jr,275,,,,M,SBD,Single-ply,DQ
Richard Duvall,100,M-T1,192.5,130,200,522.5,M,SBD,Single-ply,1
Joe Hardison,100,M-T1,172.5,112.5,195,480,M,SBD,Single-ply,2
Brandon Fiebiger,100,M-T2,255,132.5,287.5,675,M,SBD,Single-ply,1
Dustin Charbonnet,100,M-T2,247.5,162.5,210,620,M,SBD,Single-ply,2
Travis Cecil,100,M-T2,220,130,202.5,552.5,M,SBD,Single-ply,3
Nick Molestina,100,M-T2,185,107.5,202.5,495,M,SBD,Single-ply,4
Mike Parillo,100,M-T2,197.5,110,,,M,SBD,Single-ply,DQ
Derek Brixius,100,M-T3,280,187.5,267.5,735,M,SBD,Single-ply,1
Trint Golden,100,M-T3,295,190,245,730,M,SBD,Single-ply,2
Lance Ferguson,100,M-T3,260,170,250,680,M,SBD,Single-ply,3
Cody Wallace,100,M-T3,250,155,262.5,667.5,M,SBD,Single-ply,4
James Do,100,M-T3,247.5,187.5,227.5,662.5,M,SBD,Single-ply,5
Kevin McNeese,100,M-T3,227.5,167.5,265,660,M,SBD,Single-ply,6
Jacob Prezkuta,100,M-T3,230,142.5,220,592.5,M,SBD,Single-ply,7
Jeremy Hartman,100,M-Jr,295,205,297.5,797.5,M,SBD,Single-ply,1
Torey Bennett,100,M-Jr,270,177.5,280,727.5,M,SBD,Single-ply,2
Jared Cole,100,M-Jr,295,172.5,225,692.5,M,SBD,Single-ply,3
Jesse Betzinger,100,M-Jr,282.5,,,,M,SBD,Single-ply,DQ
Anthony Pernice,100,M-Jr,272.5,,,,M,SBD,Single-ply,DQ
Stephen Todd,100,M-Jr,,,,,M,SBD,Single-ply,DQ
Matt Smith #26,110,M-T1,212.5,115,205,532.5,M,SBD,Single-ply,1
Mark Allen,110,M-T1,215,102.5,190,507.5,M,SBD,Single-ply,2
Anthony Galczak,110,M-T2,215,170,235,620,M,SBD,Single-ply,1
Jesse Richardson #3,110,M-T2,207.5,137.5,192.5,537.5,M,SBD,Single-ply,2
Brandon Bringhurst,110,M-T2,227.5,,,,M,SBD,Single-ply,DQ
Joe Tronzo,110,M-T3,297.5,207.5,257.5,762.5,M,SBD,Single-ply,1
Jay Carlile,110,M-T3,250,175,250,675,M,SBD,Single-ply,2
John Brown #5,110,M-Jr,355,227.5,350,932.5,M,SBD,Single-ply,1
Steven Kouimanis,110,M-Jr,330,232.5,275,837.5,M,SBD,Single-ply,2
John Burford,110,M-Jr,285,177.5,260,722.5,M,SBD,Single-ply,3
Jon Clark #4,125,M-T1,250,162.5,160,572.5,M,SBD,Single-ply,1
Justin Howard,125,M-T2,272.5,130,260,662.5,M,SBD,Single-ply,1
Daren Grenemyer,125,M-T2,227.5,135,,,M,SBD,Single-ply,DQ
Brian Kovach,125,M-Jr,320,195,225,740,M,SBD,Single-ply,1
Daren Cressionnie,125,M-Jr,252.5,185,245,682.5,M,SBD,Single-ply,2
Jim Compton,125,M-Jr,275,,,,M,SBD,Single-ply,DQ
Matt Arman,125+,M-T2,287.5,202.5,227.5,717.5,M,SBD,Single-ply,1
Kyle Harvey,125+,M-T3,320,177.5,252.5,750,M,SBD,Single-ply,1
Josh Chovanec,125+,M-Jr,330,255,305,890,M,SBD,Single-ply,1
Adam Wilczak,125+,M-Jr,302.5,210,240,752.5,M,SBD,Single-ply,2
David Sharon,125+,M-Jr,310,230,185,725,M,SBD,Single-ply,3
