﻿Ergebnisse "Rhein-Ruhr - Cup" im Bankdrücken, 9. Mai 2009 / Duisburg
Klasse                                                                 Platzierung   Name                                      Körpergew.   1. Versuch   2. Versuch   3. Versuch  Gesamtpkt.
Junioren                                                               1. Platz             Dennis Wißkirchen     Homberg      71,9 kg      95,0 kg      100,0 kg     105,0 kg                 33,10
bis 23 Jahre                                                           2. Platz             Michael John          Homberg      75,0 kg      80,0 kg      85,0 kg      90,0 kg                  15,00
Leichtgewicht -75kg
Mittelgewicht -95kg                                                    1. Platz             Matthias Braun        Homberg      78,2 kg      117,5 kg     122,5 kg     127,5 kg                 49,30
                                                                       2. Platz             Christian Wendt       Duisburg     77,2 kg      100,0 kg     105,0 kg     110,0 kg                 32,80
Schwergewicht -115kg                                                   1. Platz             Jan Martini           Trier        104,3 kg     142,5 kg     150,0 kg     157,5 kg                 53,20
Aktive bis 39 Jahre                                                    1. Platz             Domenico Favara       Wuppertal    71,8 kg      117,5 kg     122,5 kg     127,5 kg                 50,70
Leichtgewicht -75kg
Mittelgewicht -95kg                                                    1. Platz             Günter Koll           Westerholt   89,5 kg      185,0 kg     195,0 kg     200,0 kg                 110,50
                                                                       2. Platz             Vidmantas Mongirdas   Dülmen       84,6 kg      135,0 kg     145,0 kg     155,0 kg                 60,40
                                                                       3. Platz             Jürgen Pfohl          Köln         90,2 kg      130,0 kg     140,0 kg     145,0 kg                 54,80
                                                                       4. Platz             Nico Favara           Wuppertal    77,7 kg      120,0 kg     125,0 kg     130,0 kg                 52,30
Schwergewicht -115kg                                                   1. Platz             Ingo Seidel           Leverkusen   103,7 kg     200,0 kg     210,0 kg     215,0 kg                 111,30
                                                                       2. Platz             Vitali Krenz          Moers        106,3 kg     170,0 kg     200,0 kg     210,0 kg                 103,70
                                                                       3. Platz             Marc Galland          Mülheim      108,8 kg     170,0 kg     180,0 kg     190,0 kg                 71,20
Masters I ab 40 Jahre
Mittelgewicht -95kg                                                    1. Platz             Christian Lebek       Krefeld      88,7 kg      120,0 kg     130,0 kg     140,0 kg                 41,30
Schwergewicht -115kg                                                   1. Platz             Frank Glanz           Homberg      102,9 kg     155,0 kg     160,0 kg     170,0 kg                 67,10
Superschwergewicht +115kg                                              1. Platz             Jörg Steinhöfel       Westerholt   123,7 kg     190,0 kg     202,5 kg     212,5 kg                 88,80
                                                                       2. Platz             Norbert Witt          Duisburg     134,5 kg     175,0 kg     185,0 kg     190,0 kg                 50,50
Masters II ab 50 Jahre
Superschwergewicht +115kg                                              1. Platz             Walter Kurda          Köln         117,9 kg     190,0 kg     200,0 kg     202,5 kg                 84,60
Masters III ab 60 Jahre
Mittelgewicht -95kg                                                    1. Platz             Herbert Bonk          Homberg      84,4 kg      135,0 kg     140,0 kg     145,0 kg                 60,60
Superschwergewicht +115kg                                              1. Platz             Peter Schwarz         Hannover     119,6 kg     110,0 kg     122,5 kg     125,0 kg                 2,90 DR

Gesamtsieger / nach Relativpunkten, Reshel - Tabelle
Junioren:                                              Jan Martini       Trier
Aktive:                                                Günter Koll       Westerholt
Masters I:                                             Jörg Steinhöfel   Westerholt
Masters II:                                            Walter Kurda      Köln
Masters III:                                           Herbert Bonk      Homberg
