Division,WeightClassKg,Place,Name,Team,BodyweightKg,Best3SquatKg,Best3BenchKg,Best3DeadliftKg,TotalKg,Equipment,Event,Sex
Boys,51.71,1,Jimmy Miller,George West,48.99,115.67,52.16,124.74,292.57,Single-ply,SBD,M
Boys,51.71,2,Brendon Batteau,Rockport-Fulton,48.99,99.79,56.7,99.79,256.28,Single-ply,SBD,M
Boys,51.71,3,Chase Rios,Rockport-Fulton,47.36,92.99,45.36,106.59,244.94,Single-ply,SBD,M
Boys,51.71,5,Ethan Bass,Ingleside,41.73,83.91,47.63,77.11,208.65,Single-ply,SBD,M
Boys,55.79,1,Eloy Garza,Corpus Christi West Oso,54.11,165.56,77.11,151.95,394.63,Single-ply,SBD,M
Boys,55.79,2,David Padilla,Bloomington,54.34,102.06,54.43,113.4,269.89,Single-ply,SBD,M
Boys,55.79,3,JT Bryce,George West,52.89,106.59,52.16,102.06,260.82,Single-ply,SBD,M
Boys,55.79,4,Cole Terry,Skidmore-Tynan,51.8,102.06,52.16,79.38,233.6,Single-ply,SBD,M
Boys,59.87,5,Everado Pena,Ingleside,58.01,129.27,70.31,136.08,335.66,Single-ply,SBD,M
Boys,59.87,6,Jose Muno,Port Lavaca Calhoun,58.06,124.74,83.91,108.86,317.51,Single-ply,SBD,M
Boys,59.87,7,Christian Pina,Runge,57.33,104.33,65.77,136.08,306.17,Single-ply,SBD,M
Boys,59.87,8,Geomanni Antoniello,Ingleside,57.06,117.93,58.97,90.72,267.62,Single-ply,SBD,M
Boys,59.87,DQ,Andres Ramos,Ingleside,58.29,,,,,Single-ply,SBD,M
Boys,67.13,1,Cody Hartman,Corpus Christi West Oso,60.01,201.85,113.4,190.51,505.76,Single-ply,SBD,M
Boys,67.13,2,Moc Moo,Port Lavaca Calhoun,60.06,199.58,108.86,190.51,498.95,Single-ply,SBD,M
Boys,67.13,2,Samuel Bonorden,Victoria St. Joseph,67.09,165.56,97.52,172.37,435.45,Single-ply,SBD,M
Boys,67.13,3,Daniel Tortu,Corpus Christi West Oso,60.01,192.78,111.13,179.17,483.08,Single-ply,SBD,M
Boys,67.13,4,Mike Nunez,Corpus Christi West Oso,60.1,170.1,74.84,174.63,419.57,Single-ply,SBD,M
Boys,67.13,4,Justin Clifton,Beeville Jones,65.91,161.03,95.25,165.56,421.84,Single-ply,SBD,M
Boys,67.13,6,Jason Cadena,Three Rivers,66.86,129.27,79.38,136.08,344.73,Single-ply,SBD,M
Boys,67.13,7,Dylan Sharp,Sinton,63.64,111.13,88.45,131.54,331.12,Single-ply,SBD,M
Boys,67.13,8,Zachary Rodriguez,Three Rivers,64.18,106.59,77.11,136.08,319.78,Single-ply,SBD,M
Boys,67.13,9,Jon Rodriquez,Agua Dulce,64.36,115.67,72.57,129.27,317.51,Single-ply,SBD,M
Boys,67.13,10,Jacob Salinas,Agua Dulce,63.05,95.25,68.04,147.42,310.71,Single-ply,SBD,M
Boys,67.13,11,Bredden Boales,Skidmore-Tynan,66.77,111.13,52.16,90.72,254.01,Single-ply,SBD,M
Boys,67.13,DQ,Chris Ceballos,Rockport-Fulton,65,142.88,,,,Single-ply,SBD,M
Boys,67.13,DQ,Daniel Leita,Port Lavaca Calhoun,66.68,192.78,,,,Single-ply,SBD,M
Boys,67.13,DQ,Javier Galvan,Aransas Pass,62.91,129.27,81.65,,,Single-ply,SBD,M
Boys,74.84,1,Dustin Torres,Beeville Jones,67.36,190.51,111.13,176.9,478.54,Single-ply,SBD,M
Boys,74.84,1,Javier Rodriguez,San Diego,73.94,226.8,151.95,210.92,589.67,Single-ply,SBD,M
Boys,74.84,2,Gabriel Cantu,Corpus Christi Calallen,72.85,204.12,120.2,240.4,564.72,Single-ply,SBD,M
Boys,74.84,3,Derrick Carroll,Beeville Jones,74.43,183.7,97.52,192.78,474,Single-ply,SBD,M
Boys,74.84,3,Johnathan Castillo,Sinton,67.36,149.69,99.79,185.97,435.45,Single-ply,SBD,M
Boys,74.84,4,Patrick Ptieto,Beeville Jones,74.84,179.17,102.06,188.24,469.47,Single-ply,SBD,M
Boys,74.84,5,Christian Alvarado,Corpus Christi Calallen,67.36,142.88,90.72,167.83,401.43,Single-ply,SBD,M
Boys,74.84,5,Christian Acosta,Ingleside,68.04,181.44,111.13,174.63,467.2,Single-ply,SBD,M
Boys,74.84,7,Isaiah Dennis,Pettus,70.35,147.42,99.79,181.44,428.64,Single-ply,SBD,M
Boys,74.84,8,Sammy Valenzuela,Ingleside,72.57,147.42,120.2,158.76,426.38,Single-ply,SBD,M
Boys,74.84,9,Esai Gonzalez,Port Lavaca Calhoun,71.67,145.15,106.59,154.22,405.97,Single-ply,SBD,M
Boys,74.84,10,Matthew Valadez,Corpus Christi Calallen,70.67,142.88,92.99,158.76,394.63,Single-ply,SBD,M
Boys,74.84,11,Zack Gomez,Agua Dulce,69.44,145.15,74.84,158.76,378.75,Single-ply,SBD,M
Boys,74.84,12,Steven Benavides,Pettus,70.17,131.54,95.25,145.15,371.95,Single-ply,SBD,M
Boys,74.84,13,Adrian Fuentes,George West,68.4,129.27,83.91,149.69,362.87,Single-ply,SBD,M
Boys,74.84,14,Alex Hernandez #4,Rockport-Fulton,72.39,129.27,77.11,142.88,349.27,Single-ply,SBD,M
Boys,74.84,15,Colton Salinas,Pettus,70.72,102.06,61.23,138.35,301.64,Single-ply,SBD,M
Boys,74.84,DQ,Alex Martinez #5,Beeville Jones,74.62,163.29,,,,Single-ply,SBD,M
Boys,74.84,DQ,Adrian Rojas,Bloomington,70.9,,,,,Single-ply,SBD,M
Boys,74.84,DQ,John Carrillo,Three Rivers,71.58,,,,,Single-ply,SBD,M
Boys,82.1,1,Leonel Salinas,San Diego,76.43,233.6,129.27,208.65,571.53,Single-ply,SBD,M
Boys,82.1,2,Chris Madrigal,Beeville Jones,78.52,210.92,124.74,226.8,562.45,Single-ply,SBD,M
Boys,82.1,4,Elijah Holifield,Skidmore-Tynan,81.87,183.7,108.86,185.97,478.54,Single-ply,SBD,M
Boys,82.1,5,David Juarez,Corpus Christi West Oso,76.43,195.04,111.13,158.76,464.93,Single-ply,SBD,M
Boys,82.1,6,Matthew Vallejo,Victoria St. Joseph,74.89,161.03,102.06,183.7,446.79,Single-ply,SBD,M
Boys,82.1,6,Chase Resendez,Rockport-Fulton,79.15,176.9,111.13,174.63,462.66,Single-ply,SBD,M
Boys,82.1,7,Liam Porr,Victoria St. Joseph,79.02,151.95,102.06,163.29,417.3,Single-ply,SBD,M
Boys,82.1,8,Lee Remmers,Three Rivers,76.61,133.81,83.91,158.76,376.48,Single-ply,SBD,M
Boys,82.1,9,Gabriel Guajardo,Skidmore-Tynan,81.28,104.33,77.11,136.08,317.51,Single-ply,SBD,M
Boys,82.1,10,Thomas Puentes,Skidmore-Tynan,81.42,102.06,77.11,124.74,303.91,Single-ply,SBD,M
Boys,82.1,DQ,Nathan Coates,Sinton,76.34,131.54,,,,Single-ply,SBD,M
Boys,82.1,DQ,Nate Smith,George West,81.24,,,,,Single-ply,SBD,M
Boys,89.81,1,Karl Gibson II,Mathis,89.54,233.6,149.69,224.53,607.81,Single-ply,SBD,M
Boys,89.81,2,Lane McClelland,George West,84.05,197.31,136.08,215.46,548.85,Single-ply,SBD,M
Boys,89.81,3,Brandon Munoz,George West,82.24,183.7,120.2,192.78,496.68,Single-ply,SBD,M
Boys,89.81,3,Resha Durst,Rockport-Fulton,84.05,208.65,136.08,195.04,539.77,Single-ply,SBD,M
Boys,89.81,5,Drew Romero,Corpus Christi Calallen,85.41,181.44,129.27,158.76,469.47,Single-ply,SBD,M
Boys,89.81,6,Raul Fernandez,Rockport-Fulton,89.18,192.78,113.4,161.03,467.2,Single-ply,SBD,M
Boys,89.81,7,Federico Ruiz Jr,Corpus Christi Calallen,87.63,172.37,106.59,181.44,460.4,Single-ply,SBD,M
Boys,89.81,8,Roland Rivas,Aransas Pass,86.41,170.1,117.93,161.03,449.06,Single-ply,SBD,M
Boys,89.81,9,Frank Wallace,George West,85.41,142.88,106.59,170.1,419.57,Single-ply,SBD,M
Boys,89.81,10,Ethan Bernal,George West,87.45,151.95,74.84,161.03,387.82,Single-ply,SBD,M
Boys,89.81,11,Hunter Canales,Corpus Christi Calallen,85.41,136.08,77.11,165.56,378.75,Single-ply,SBD,M
Boys,89.81,12,Ethan Nguyen,Rockport-Fulton,84.91,136.08,83.91,142.88,362.87,Single-ply,SBD,M
Boys,89.81,13,Sam Owen,Rockport-Fulton,85.46,122.47,81.65,124.74,328.85,Single-ply,SBD,M
Boys,89.81,DQ,Ilias Rodriguez,Three Rivers,88.81,165.56,,,,Single-ply,SBD,M
Boys,89.81,DQ,Alec Lara,Mathis,89.18,199.58,,,,Single-ply,SBD,M
Boys,89.81,DQ,Ivan Posadas,Port Lavaca Calhoun,89.18,190.51,,,,Single-ply,SBD,M
Boys,89.81,DQ,Paul Torres,Aransas Pass,86.5,181.44,,,,Single-ply,SBD,M
Boys,89.81,DQ,Diego Salazar,Bloomington,87.41,,,,,Single-ply,SBD,M
Boys,89.81,DQ,Danllen Cerda,Runge,89.81,,,,,Single-ply,SBD,M
Boys,99.79,1,Aaron Puga,Beeville Jones,98.43,240.4,136.08,226.8,603.28,Single-ply,SBD,M
Boys,99.79,2,JD Zapata,Rockport-Fulton,98.2,224.53,131.54,226.8,582.87,Single-ply,SBD,M
Boys,99.79,3,Nicholas Tovar,Corpus Christi Calallen,99.2,217.72,120.2,208.65,546.58,Single-ply,SBD,M
Boys,99.79,4,Rudy Casaves,Beeville Jones,89.99,197.31,124.74,192.78,514.83,Single-ply,SBD,M
Boys,99.79,4,Jaime Pedraza,Mathis,97.3,206.38,115.67,181.44,503.49,Single-ply,SBD,M
Boys,99.79,5,John Perez #2,Port Lavaca Calhoun,97.61,188.24,120.2,181.44,489.88,Single-ply,SBD,M
Boys,99.79,6,Leo Colom,Port Lavaca Calhoun,98.79,183.7,113.4,188.24,485.34,Single-ply,SBD,M
Boys,99.79,7,Andrew Hinojosa,Corpus Christi Calallen,95.16,174.63,102.06,195.04,471.74,Single-ply,SBD,M
Boys,99.79,9,Joseph Benavidez,Pettus,96.98,176.9,117.93,167.83,462.66,Single-ply,SBD,M
Boys,99.79,10,Carson Tipps,Corpus Christi Calallen,99.52,183.7,115.67,156.49,455.86,Single-ply,SBD,M
Boys,99.79,11,Dylan Hofstetter,Corpus Christi Calallen,96.39,174.63,97.52,165.56,437.72,Single-ply,SBD,M
Boys,99.79,12,Josh Garcia #2,Runge,99.38,158.76,92.99,158.76,410.5,Single-ply,SBD,M
Boys,99.79,13,Rudy Olivares,Skidmore-Tynan,91.63,149.69,95.25,158.76,403.7,Single-ply,SBD,M
Boys,99.79,14,Juan Inclan,Runge,89.95,92.99,56.7,142.88,292.57,Single-ply,SBD,M
Boys,99.79,14,Hunter Jolley,Rockport-Fulton,94.12,142.88,104.33,151.95,399.16,Single-ply,SBD,M
Boys,99.79,15,Luke Snodgrass,Ingleside,94.26,129.27,72.57,131.54,333.39,Single-ply,SBD,M
Boys,99.79,DQ,Rene Osornia,Port Lavaca Calhoun,90.04,226.8,124.74,,,Single-ply,SBD,M
Boys,99.79,DQ,Seth Colsa,Corpus Christi Calallen,94.08,,,,,Single-ply,SBD,M
Boys,99.79,DQ,Jakob Encina,Sinton,92.85,,,,,Single-ply,SBD,M
Boys,99.79,DQ,Victor Vera,Sinton,95.03,,,,,Single-ply,SBD,M
Boys,109.77,1,Jose Moreno,San Diego,102.51,274.42,136.08,274.42,684.92,Single-ply,SBD,M
Boys,109.77,2,Eddie Garcia,Port Lavaca Calhoun,104.33,283.5,158.76,242.67,684.92,Single-ply,SBD,M
Boys,109.77,3,Brian Tran,Rockport-Fulton,101.15,217.72,158.76,226.8,603.28,Single-ply,SBD,M
Boys,109.77,4,David Smith,Beeville Jones,104.46,204.12,138.35,192.78,535.24,Single-ply,SBD,M
Boys,109.77,5,Elizar Gonzalez,San Diego,102.83,217.72,129.27,181.44,528.44,Single-ply,SBD,M
Boys,109.77,6,Oscar Mayan,Corpus Christi West Oso,108.05,210.92,102.06,192.78,505.76,Single-ply,SBD,M
Boys,109.77,7,Justice Escobar,Corpus Christi Calallen,101.2,195.04,106.59,190.51,492.15,Single-ply,SBD,M
Boys,109.77,8,Michael Rios,Runge,99.93,181.44,106.59,176.9,464.93,Single-ply,SBD,M
Boys,109.77,8,Mason Crawley,Skidmore-Tynan,108.86,183.7,117.93,181.44,483.08,Single-ply,SBD,M
Boys,109.77,9,Michael Salaiz,San Diego,102.42,195.04,108.86,165.56,469.47,Single-ply,SBD,M
Boys,109.77,10,Alex Tijerina,Ingleside,107.14,185.97,92.99,149.69,428.64,Single-ply,SBD,M
Boys,109.77,DQ,Jeffery Perez,Beeville Jones,109,,,,,Single-ply,SBD,M
Boys,109.77,DQ,Marckujs Avitia,Ingleside,106.59,156.49,106.59,,,Single-ply,SBD,M
Boys,109.77,DQ,Kaleb Pogue,Rockport-Fulton,108.59,179.17,,,,Single-ply,SBD,M
Boys,109.77,DQ,Mark Maldonado,Sinton,102.65,170.1,111.13,,,Single-ply,SBD,M
Boys,124.74,1,Javier Henderson,Mathis,115.71,310.71,167.83,217.72,696.26,Single-ply,SBD,M
Boys,124.74,2,Joey Rodriguez,Corpus Christi West Oso,114.85,278.96,136.08,226.8,641.83,Single-ply,SBD,M
Boys,124.74,3,Diego Fonseca,Mathis,110.63,238.14,147.42,208.65,594.21,Single-ply,SBD,M
Boys,124.74,4,Adrian Acevedo,Beeville Jones,116.3,238.14,129.27,226.8,594.21,Single-ply,SBD,M
Boys,124.74,5,Matthew Frazier,Port Lavaca Calhoun,112.54,226.8,136.08,197.31,560.19,Single-ply,SBD,M
Boys,124.74,6,Anthony Cantu,Mathis,112.99,231.33,142.88,176.9,551.11,Single-ply,SBD,M
Boys,124.74,7,Brandon Riley,Corpus Christi West Oso,115.17,210.92,136.08,192.78,539.77,Single-ply,SBD,M
Boys,124.74,9,Ablel Tunchez,San Diego,115.39,204.12,97.52,172.37,474,Single-ply,SBD,M
Boys,124.74,10,Sam Gentry,Corpus Christi Calallen,120.75,142.88,92.99,165.56,401.43,Single-ply,SBD,M
Boys,124.74,11,Dakota Socarras,Port Lavaca Calhoun,123.69,151.95,99.79,129.27,381.02,Single-ply,SBD,M
Boys,124.74,12,Cameron Ngo,Rockport-Fulton,113.53,145.15,83.91,149.69,378.75,Single-ply,SBD,M
Boys,124.74,13,Trevor Benavides,Victoria St. Joseph,124.74,90.72,83.91,120.2,294.84,Single-ply,SBD,M
Boys,124.74,DQ,Robert Reyes,Runge,117.03,,,,,Single-ply,SBD,M
Boys,124.74,DQ,Ethan Dreyer,Rockport-Fulton,113.94,140.61,,,,Single-ply,SBD,M
Boys,124.74+,1,Chase Herrig,Sinton,129.59,226.8,151.95,192.78,571.53,Single-ply,SBD,M
Boys,124.74+,2,George Hughes,San Diego,127.01,183.7,120.2,170.1,474,Single-ply,SBD,M
Boys,124.74+,3,Hunter Hackney,Runge,132.18,142.88,86.18,183.7,412.77,Single-ply,SBD,M
Boys,124.74+,4,Christian Dickie,Aransas Pass,153.9,115.67,113.4,181.44,410.5,Single-ply,SBD,M
Boys,124.74+,8,Luis Sanchez,Three Rivers,124.87,226.8,124.74,188.24,539.77,Single-ply,SBD,M
Boys,124.74+,DQ,Trevor Gloor,Victoria St. Joseph,127.01,158.76,,,,Single-ply,SBD,M
Boys,124.74+,DQ,Mikey Esparza,Rockport-Fulton,131.31,328.85,,,,Single-ply,SBD,M
