Division,WeightClassKg,Place,Name,Team,BodyweightKg,Best3SquatKg,Best3BenchKg,Best3DeadliftKg,TotalKg,Equipment,Event,Sex,BirthDate
Boys,51.71,1,John Wyatt #1,Fort Worth Chisholm Trail,51.62,140.61,79.38,142.88,362.87,Single-ply,SBD,M,
Boys,51.71,2,Tristan Salas,White Settlement Brewer,51.71,97.52,63.5,117.93,278.96,Single-ply,SBD,M,
Boys,51.71,3,Nevin Walker,Aledo,42.68,61.23,34.02,81.65,176.9,Single-ply,SBD,M,
Boys,55.79,1,Raymond Flores,White Settlement Brewer,54.88,120.2,83.91,151.95,356.07,Single-ply,SBD,M,
Boys,59.87,1,Terrance Dukes,Fort Worth Chisholm Trail,59.15,90.72,65.77,117.93,274.42,Single-ply,SBD,M,
Boys,67.13,1,Kameron Sinclair,White Settlement Brewer,63.5,206.38,95.25,183.7,485.34,Single-ply,SBD,M,
Boys,67.13,2,Noah Ferinough,Aledo,66.04,129.27,79.38,154.22,362.87,Single-ply,SBD,M,
Boys,67.13,3,Carson Bobbit,Aledo,61.87,113.4,81.65,124.74,319.78,Single-ply,SBD,M,
Boys,67.13,4,Justin Hays,White Settlement Brewer,63.5,108.86,74.84,127.01,310.71,Single-ply,SBD,M,
Boys,67.13,DQ,Carson Tayfel,White Settlement Brewer,65.32,,,,,Single-ply,SBD,M,
Boys,74.84,1,Andrew Chasteen,Aledo,71.71,156.49,104.33,192.78,453.59,Single-ply,SBD,M,
Boys,74.84,2,Magnum Saenz,Fort Worth Chisholm Trail,74.53,165.56,122.47,158.76,446.79,Single-ply,SBD,M,
Boys,74.84,3,Brandon Olguin,Fort Worth Chisholm Trail,72.12,151.95,104.33,170.1,426.38,Single-ply,SBD,M,
Boys,74.84,4,Joel Kaira,Fort Worth Chisholm Trail,74.39,147.42,92.99,158.76,399.16,Single-ply,SBD,M,
Boys,74.84,5,Braden Reese,Fort Worth Chisholm Trail,72.94,136.08,102.06,151.95,390.09,Single-ply,SBD,M,
Boys,74.84,6,Ayehma Sorie,Fort Worth Chisholm Trail,69.76,133.81,90.72,163.29,387.82,Single-ply,SBD,M,
Boys,74.84,7,Cory Tilly,Aledo,69.08,127.01,102.06,151.95,381.02,Single-ply,SBD,M,
Boys,74.84,8,Toby McDonald,Aledo,73.21,136.08,90.72,154.22,381.02,Single-ply,SBD,M,
Boys,74.84,9,Brayden Curtis,Fort Worth Chisholm Trail,69.76,120.2,81.65,145.15,347,Single-ply,SBD,M,
Boys,74.84,10,Ty Hardisty,Fort Worth Chisholm Trail,69.76,113.4,83.91,120.2,317.51,Single-ply,SBD,M,
Boys,74.84,DQ,Terrance Durham,White Settlement Brewer,73.03,,,,,Single-ply,SBD,M,
Boys,74.84,DQ,Kayden Brooks,White Settlement Brewer,68.49,,,,,Single-ply,SBD,M,
Boys,82.1,1,Alec Boyle,White Settlement Brewer,82.1,244.94,183.7,199.58,628.23,Single-ply,SBD,M,
Boys,82.1,2,Mekhi Elmore,White Settlement Brewer,79.38,183.7,104.33,192.78,480.81,Single-ply,SBD,M,
Boys,82.1,3,Khalil Stolden,White Settlement Brewer,79.83,158.76,104.33,192.78,455.86,Single-ply,SBD,M,
Boys,82.1,4,Ky Howington,Aledo,76.25,149.69,108.86,172.37,430.91,Single-ply,SBD,M,
Boys,82.1,DQ,Tyler Navarro,Aledo,81.83,,,,,Single-ply,SBD,M,
Boys,82.1,DQ,Will Washington,White Settlement Brewer,75.3,,,,,Single-ply,SBD,M,
Boys,89.81,1,Shone Mombo,Fort Worth Chisholm Trail,89.18,226.8,136.08,249.48,612.35,Single-ply,SBD,M,
Boys,89.81,2,Ethan Moore,White Settlement Brewer,84.37,192.78,117.93,210.92,521.63,Single-ply,SBD,M,
Boys,89.81,3,Cooper Kohan,Aledo,86.05,174.63,131.54,199.58,505.76,Single-ply,SBD,M,
Boys,89.81,4,Skylar Frank,Aledo,84.55,154.22,122.47,165.56,442.25,Single-ply,SBD,M,
Boys,89.81,5,Jaylen Spriggs,White Settlement Brewer,87.54,174.63,,181.44,356.07,Single-ply,SD,M,
Boys,89.81,6,Samuel Pimentel,Aledo,89.04,102.06,77.11,124.74,303.91,Single-ply,SBD,M,
Boys,89.81,DQ,Austin Caldwell,Aledo,89.18,,,,,Single-ply,SBD,M,
Boys,99.79,1,Courtney Pruitt,White Settlement Brewer,97.98,226.8,158.76,210.92,596.47,Single-ply,SBD,M,
Boys,99.79,2,Elijah Richardson,White Settlement Brewer,92.53,192.78,142.88,219.99,555.65,Single-ply,SBD,M,
Boys,99.79,3,Brenden Sides,Aledo,94.85,181.44,140.61,199.58,521.63,Single-ply,SBD,M,
Boys,99.79,4,Jeremiah Dowell,Fort Worth Chisholm Trail,98.43,190.51,115.67,208.65,514.83,Single-ply,SBD,M,
Boys,99.79,5,John Espinosa,Fort Worth Chisholm Trail,94.26,190.51,106.59,197.31,494.42,Single-ply,SBD,M,
Boys,99.79,6,Elijah Raya,Fort Worth Chisholm Trail,99.47,170.1,113.4,190.51,474,Single-ply,SBD,M,
Boys,99.79,7,Connor Cook,Fort Worth Chisholm Trail,98.7,147.42,106.59,167.83,421.84,Single-ply,SBD,M,
Boys,99.79,8,Jacob McIntire,Aledo,93.8,140.61,81.65,183.7,405.97,Single-ply,SBD,M,
Boys,99.79,9,Cameron Cobbs,Fort Worth Chisholm Trail,93.62,136.08,97.52,170.1,403.7,Single-ply,SBD,M,
Boys,99.79,10,Christopher Gomez,Aledo,99.25,136.08,79.38,136.08,351.53,Single-ply,SBD,M,
Boys,99.79,11,Aiden Bristow,Aledo,99.38,124.74,88.45,136.08,349.27,Single-ply,SBD,M,
Boys,99.79,DQ,Jed Emeka-Okoya,Aledo,93.98,,,,,Single-ply,SBD,M,
Boys,109.77,1,Danny Simmons,Fort Worth Chisholm Trail,108.05,249.48,158.76,254.01,662.24,Single-ply,SBD,M,
Boys,109.77,2,Andy Portales,Fort Worth Chisholm Trail,107.23,226.8,131.54,254.01,612.35,Single-ply,SBD,M,
Boys,109.77,3,Issac Knott,Aledo,108,208.65,131.54,204.12,544.31,Single-ply,SBD,M,
Boys,109.77,4,Carter Campbell,Aledo,103.46,185.97,120.2,190.51,496.68,Single-ply,SBD,M,
Boys,109.77,5,Jaxon Richter,Aledo,103.01,158.76,90.72,147.42,396.89,Single-ply,SBD,M,
Boys,109.77,6,Weston Berry,Aledo,106.96,124.74,79.38,158.76,362.87,Single-ply,SBD,M,
Boys,109.77,7,Barrett Martin,Aledo,102.69,136.08,70.31,136.08,342.46,Single-ply,SBD,M,
Boys,124.74,1,Robert Orr #1,White Settlement Brewer,116.57,276.69,163.29,251.74,691.73,Single-ply,SBD,M,
Boys,124.74,2,Rj Weatherd,White Settlement Brewer,116.57,197.31,147.42,204.12,548.85,Single-ply,SBD,M,
Boys,124.74,3,Javier Garcia #12,Fort Worth Chisholm Trail,116.48,213.19,113.4,183.7,510.29,Single-ply,SBD,M,
Boys,124.74,4,Kelsey Tshimpamba,Fort Worth Chisholm Trail,112.17,197.31,108.86,190.51,496.68,Single-ply,SBD,M,
Boys,124.74,5,Edgar Jasso,Fort Worth Chisholm Trail,116.66,174.63,86.18,154.22,415.04,Single-ply,SBD,M,
Boys,124.74,6,Aiden Woods,Fort Worth Chisholm Trail,115.21,145.15,108.86,158.76,412.77,Single-ply,SBD,M,
Boys,124.74,7,Chris Anderson #13,Aledo,115.35,104.33,102.06,129.27,335.66,Single-ply,SBD,M,
Boys,124.74,DQ,Talon Foreman,Aledo,120.34,,,,,Single-ply,SBD,M,
Boys,139.71,1,Darron Copeland,Fort Worth Chisholm Trail,130.82,154.22,124.74,174.63,453.59,Single-ply,SBD,M,
Boys,139.71,2,Herbert Contreras,Fort Worth Chisholm Trail,128.73,163.29,117.93,161.03,442.25,Single-ply,SBD,M,
Boys,139.71+,1,Cameron Hutcherson,White Settlement Brewer,158.76,267.62,156.49,251.74,675.85,Single-ply,SBD,M,
Boys,139.71+,2,Samuel Nesmith,Fort Worth Chisholm Trail,158.76,185.97,138.35,206.38,530.7,Single-ply,SBD,M,
Boys,139.71+,3,Adrian Lewis,White Settlement Brewer,158.76,174.63,113.4,181.44,469.47,Single-ply,SBD,M,
